[
    {
      "lowerCaseName": "aed",
      "upperCaseName": "AED",
      "symbol": "د.إ"
    },
    {
      "lowerCaseName": "afn",
      "upperCaseName": "AFN",
      "symbol": "؋"
    },
    {
      "lowerCaseName": "all",
      "upperCaseName": "ALL",
      "symbol": "Lek"
    },
    {
      "lowerCaseName": "amd",
      "upperCaseName": "AMD",
      "symbol": "Դ"
    },
    {
      "lowerCaseName": "ang",
      "upperCaseName": "ANG",
      "symbol": "ƒ"
    },
    {
      "lowerCaseName": "aoa",
      "upperCaseName": "AOA",
      "symbol": "Kz"
    },
    {
      "lowerCaseName": "ars",
      "upperCaseName": "ARS",
      "symbol": "$"
    },
    {
      "lowerCaseName": "aud",
      "upperCaseName": "AUD",
      "symbol": "$"
    },
    {
      "lowerCaseName": "awg",
      "upperCaseName": "AWG",
      "symbol": "ƒ"
    },
  {
    "lowerCaseName": "azn",
    "upperCaseName": "AZN",
    "symbol": "ман"
  },
  {
    "lowerCaseName": "bam",
    "upperCaseName": "BAM",
    "symbol": "КМ"
  },
  {
    "lowerCaseName": "bbd",
    "upperCaseName": "BBD",
    "symbol": "$"
  },
  {
    "lowerCaseName": "bdt",
    "upperCaseName": "BDT",
    "symbol": "৳"
  },
  {
    "lowerCaseName": "bgn",
    "upperCaseName": "BGN",
    "symbol": "лв"
  },
  {
    "lowerCaseName": "bhd",
    "upperCaseName": "BHD",
    "symbol": "ب.د"
  },
  {
    "lowerCaseName": "bif",
    "upperCaseName": "BIF",
    "symbol": "₣"
  },
  {
    "lowerCaseName": "bmd",
    "upperCaseName": "BMD",
    "symbol": "$"
  },
  {
    "lowerCaseName": "bnd",
    "upperCaseName": "BND",
    "symbol": "$"
  },
  {
    "lowerCaseName": "bob",
    "upperCaseName": "BOB",
    "symbol": "Bs."
  },
  {
    "lowerCaseName": "brl",
    "upperCaseName": "BRL",
    "symbol": "R$"
  },
  {
    "lowerCaseName": "bsd",
    "upperCaseName": "BSD",
    "symbol": "$"
  },
  {
    "lowerCaseName": "btc",
    "upperCaseName": "BTC",
    "symbol": "₿"
  },
  {
    "lowerCaseName": "btn",
    "upperCaseName": "BTN",
    "symbol": "Nu."
  },
  {
    "lowerCaseName": "bwp",
    "upperCaseName": "BWP",
    "symbol": "P"
  },
  {
    "lowerCaseName": "byn",
    "upperCaseName": "BYN",
    "symbol": "Br"
  },
  {
    "lowerCaseName": "bzd",
    "upperCaseName": "BZD",
    "symbol": "$"
  },
  {
    "lowerCaseName": "cad",
    "upperCaseName": "CAD",
    "symbol": "$"
  },
  {
    "lowerCaseName": "cdf",
    "upperCaseName": "CDF",
    "symbol": "₣"
  },
  {
    "lowerCaseName": "chf",
    "upperCaseName": "CHF",
    "symbol": "₣"
  },
  {
    "lowerCaseName": "clp",
    "upperCaseName": "CLP",
    "symbol": "$"
  },
  {
    "lowerCaseName": "clf",
    "upperCaseName": "CLF",
    "symbol": "UF"
  },
  {
    "lowerCaseName": "cnh",
    "upperCaseName": "CNH",
    "symbol": "¥"
  },
  {
    "lowerCaseName": "cny",
    "upperCaseName": "CNY",
    "symbol": "¥"
  },
  {
    "lowerCaseName": "cop",
    "upperCaseName": "COP",
    "symbol": "$"
  },
  {
    "lowerCaseName": "crc",
    "upperCaseName": "CRC",
    "symbol": "₡"
  },
  {
    "lowerCaseName": "cup",
    "upperCaseName": "CUP",
    "symbol": "$"
  },
  {
    "lowerCaseName": "cve",
    "upperCaseName": "CVE",
    "symbol": "$"
  },
  {
    "lowerCaseName": "czk",
    "upperCaseName": "CZK",
    "symbol": "Kč"
  },
  {
    "lowerCaseName": "djf",
    "upperCaseName": "DJF",
    "symbol": "₣"
  },
  {
    "lowerCaseName": "dkk",
    "upperCaseName": "DKK",
    "symbol": "kr"
  },
  {
    "lowerCaseName": "dop",
    "upperCaseName": "DOP",
    "symbol": "$"
  },
  {
    "lowerCaseName": "dzd",
    "upperCaseName": "DZD",
    "symbol": "د.ج"
  },
  {
    "lowerCaseName": "egp",
    "upperCaseName": "EGP",
    "symbol": "£"
  },
  {
    "lowerCaseName": "ern",
    "upperCaseName": "ERN",
    "symbol": "Nfk"
  },
  {
    "lowerCaseName": "etb",
    "upperCaseName": "ETB",
    "symbol": "Br"
  },
  {
    "lowerCaseName": "eur",
    "upperCaseName": "EUR",
    "symbol": "€"
  },
  {
    "lowerCaseName": "fjd",
    "upperCaseName": "FJD",
    "symbol": "$"
  },
  {
    "lowerCaseName": "fkp",
    "upperCaseName": "FKP",
    "symbol": "£"
  },
  {
    "lowerCaseName": "gbp",
    "upperCaseName": "GBP",
    "symbol": "£"
  },
  {
    "lowerCaseName": "gel",
    "upperCaseName": "GEL",
    "symbol": "ლ"
  },
  {
    "lowerCaseName": "ggp",
    "upperCaseName": "GGP",
    "symbol": "£"
  },
  {
    "lowerCaseName": "ghs",
    "upperCaseName": "GHS",
    "symbol": "₵"
  },
  {
    "lowerCaseName": "gip",
    "upperCaseName": "GIP",
    "symbol": "£"
  },
  {
    "lowerCaseName": "gmd",
    "upperCaseName": "GMD",
    "symbol": "D"
  },
  {
    "lowerCaseName": "gnf",
    "upperCaseName": "GNF",
    "symbol": "₣"
  },
  {
    "lowerCaseName": "gtq",
    "upperCaseName": "GTQ",
    "symbol": "Q"
  },
  {
    "lowerCaseName": "gyd",
    "upperCaseName": "GYD",
    "symbol": "$"
  },
  {
    "lowerCaseName": "hkd",
    "upperCaseName": "HKD",
    "symbol": "$"
  },
  {
    "lowerCaseName": "hnl",
    "upperCaseName": "HNL",
    "symbol": "L"
  },
  {
    "lowerCaseName": "hrk",
    "upperCaseName": "HRK",
    "symbol": "Kn"
  },
  {
    "lowerCaseName": "htg",
    "upperCaseName": "HTG",
    "symbol": "G"
  },
  {
    "lowerCaseName": "huf",
    "upperCaseName": "HUF",
    "symbol": "Ft"
  },
  {
    "lowerCaseName": "idr",
    "upperCaseName": "IDR",
    "symbol": "Rp"
  },
  {
    "lowerCaseName": "ils",
    "upperCaseName": "ILS",
    "symbol": "₪"
  },
  {
    "lowerCaseName": "inr",
    "upperCaseName": "INR",
    "symbol": "₹"
  },
  {
    "lowerCaseName": "iqd",
    "upperCaseName": "IQD",
    "symbol": "ع.د"
  },
  {
    "lowerCaseName": "irr",
    "upperCaseName": "IRR",
    "symbol": "﷼"
  },
  {
    "lowerCaseName": "isk",
    "upperCaseName": "ISK",
    "symbol": "Kr"
  },
  {
    "lowerCaseName": "jep",
    "upperCaseName": "JEP",
    "symbol": "£"
  },
  {
    "lowerCaseName": "jmd",
    "upperCaseName": "JMD",
    "symbol": "$"
  },
  {
    "lowerCaseName": "jod",
    "upperCaseName": "JOD",
    "symbol": "د.ا"
  },
  {
    "lowerCaseName": "jpy",
    "upperCaseName": "JPY",
    "symbol": "¥"
  },
  {
    "lowerCaseName": "kes",
    "upperCaseName": "KES",
    "symbol": "Sh"
  },
  {
    "lowerCaseName": "kgs",
    "upperCaseName": "KGS",
    "symbol": "сом"
  },
  {
    "lowerCaseName": "khr",
    "upperCaseName": "KHR",
    "symbol": "៛"
  },
  {
    "lowerCaseName": "kmf",
    "upperCaseName": "KMF",
    "symbol": "CF"
  },
  {
    "lowerCaseName": "kpw",
    "upperCaseName": "KPW",
    "symbol": "₩"
  },
  {
    "lowerCaseName": "krw",
    "upperCaseName": "KRW",
    "symbol": "₩"
  },
  {
    "lowerCaseName": "kwd",
    "upperCaseName": "KWD",
    "symbol": "د.ك"
  },
  {
    "lowerCaseName": "kyd",
    "upperCaseName": "KYD",
    "symbol": "$"
  },
  {
    "lowerCaseName": "kzt",
    "upperCaseName": "KZT",
    "symbol": "〒"
  },
  {
    "lowerCaseName": "lak",
    "upperCaseName": "LAK",
    "symbol": "₭"
  },
  {
    "lowerCaseName": "lbp",
    "upperCaseName": "LBP",
    "symbol": "ل.ل"
  },
  {
    "lowerCaseName": "lkr",
    "upperCaseName": "LKR",
    "symbol": "Rs"
  },
  {
    "lowerCaseName": "lrd",
    "upperCaseName": "LRD",
    "symbol": "$"
  },
  {
    "lowerCaseName": "lsl",
    "upperCaseName": "LSL",
    "symbol": "L"
  },
  {
    "lowerCaseName": "lyd",
    "upperCaseName": "LYD",
    "symbol": "ل.د"
  },
  {
    "lowerCaseName": "mad",
    "upperCaseName": "MAD",
    "symbol": "د.م."
  },
  {
    "lowerCaseName": "mdl",
    "upperCaseName": "MDL",
    "symbol": "L"
  },
  {
    "lowerCaseName": "mga",
    "upperCaseName": "MGA",
    "symbol": "Ar"
  },
  {
    "lowerCaseName": "mkd",
    "upperCaseName": "MKD",
    "symbol": "ден"
  },
  {
    "lowerCaseName": "mmk",
    "upperCaseName": "MMK",
    "symbol": "K"
  },
  {
    "lowerCaseName": "mnt",
    "upperCaseName": "MNT",
    "symbol": "₮"
  },
  {
    "lowerCaseName": "mop",
    "upperCaseName": "MOP",
    "symbol": "P"
  },
  {
    "lowerCaseName": "mru",
    "upperCaseName": "MRU",
    "symbol": "UM"
  },
  {
    "lowerCaseName": "mur",
    "upperCaseName": "MUR",
    "symbol": "Rs"
  },
  {
    "lowerCaseName": "mvr",
    "upperCaseName": "MVR",
    "symbol": "ރ."
  },
  {
    "lowerCaseName": "mwk",
    "upperCaseName": "MWK",
    "symbol": "MK"
  },
  {
    "lowerCaseName": "mxn",
    "upperCaseName": "MXN",
    "symbol": "$"
  },
  {
    "lowerCaseName": "myr",
    "upperCaseName": "MYR",
    "symbol": "RM"
  },
  {
    "lowerCaseName": "mzn",
    "upperCaseName": "MZN",
    "symbol": "MTn"
  },
  {
    "lowerCaseName": "nad",
    "upperCaseName": "NAD",
    "symbol": "$"
  },
  {
    "lowerCaseName": "ngn",
    "upperCaseName": "NGN",
    "symbol": "₦"
  },
  {
    "lowerCaseName": "nio",
    "upperCaseName": "NIO",
    "symbol": "C$"
  },
  {
    "lowerCaseName": "nok",
    "upperCaseName": "NOK",
    "symbol": "kr"
  },
  {
    "lowerCaseName": "npr",
    "upperCaseName": "NPR",
    "symbol": "Rs"
  },
  {
    "lowerCaseName": "nzd",
    "upperCaseName": "NZD",
    "symbol": "$"
  },
  {
    "lowerCaseName": "omr",
    "upperCaseName": "OMR",
    "symbol": "ر.ع."
  },
  {
    "lowerCaseName": "pab",
    "upperCaseName": "PAB",
    "symbol": "B/."
  },
  {
    "lowerCaseName": "pen",
    "upperCaseName": "PEN",
    "symbol": "S/."
  },
  {
    "lowerCaseName": "pgk",
    "upperCaseName": "PGK",
    "symbol": "K"
  },
  {
    "lowerCaseName": "php",
    "upperCaseName": "PHP",
    "symbol": "₱"
  },
  {
    "lowerCaseName": "pkr",
    "upperCaseName": "PKR",
    "symbol": "Rs"
  },
  {
    "lowerCaseName": "pln",
    "upperCaseName": "PLN",
    "symbol": "zł"
  },
  {
    "lowerCaseName": "pyg",
    "upperCaseName": "PYG",
    "symbol": "₲"
  },
  {
    "lowerCaseName": "qar",
    "upperCaseName": "QAR",
    "symbol": "ر.ق"
  },
  {
    "lowerCaseName": "ron",
    "upperCaseName": "RON",
    "symbol": "L"
  },
  {
    "lowerCaseName": "rsd",
    "upperCaseName": "RSD",
    "symbol": "din"
  },
  {
    "lowerCaseName": "rub",
    "upperCaseName": "RUB",
    "symbol": "р."
  },
  {
    "lowerCaseName": "rwf",
    "upperCaseName": "RWF",
    "symbol": "₣"
  },
  {
    "lowerCaseName": "sar",
    "upperCaseName": "SAR",
    "symbol": "ر.س"
  },
  {
    "lowerCaseName": "sbd",
    "upperCaseName": "SBD",
    "symbol": "$"
  },
  {
    "lowerCaseName": "scr",
    "upperCaseName": "SCR",
    "symbol": "Rs"
  },
  {
    "lowerCaseName": "sdg",
    "upperCaseName": "SDG",
    "symbol": "£"
  },
  {
    "lowerCaseName": "sek",
    "upperCaseName": "SEK",
    "symbol": "kr"
  },
  {
    "lowerCaseName": "sgd",
    "upperCaseName": "SGD",
    "symbol": "$"
  },
  {
    "lowerCaseName": "shp",
    "upperCaseName": "SHP",
    "symbol": "£"
  },
  {
    "lowerCaseName": "sll",
    "upperCaseName": "SLL",
    "symbol": "Le"
  },
  {
    "lowerCaseName": "sos",
    "upperCaseName": "SOS",
    "symbol": "Sh"
  },
  {
    "lowerCaseName": "srd",
    "upperCaseName": "SRD",
    "symbol": "$"
  },
  {
    "lowerCaseName": "ssp",
    "upperCaseName": "SSP",
    "symbol": "£"
  },
  {
    "lowerCaseName": "stn",
    "upperCaseName": "STN",
    "symbol": "Db"
  },
  {
    "lowerCaseName": "svc",
    "upperCaseName": "SVC",
    "symbol": "₡"
  },
  {
    "lowerCaseName": "syp",
    "upperCaseName": "SYP",
    "symbol": "ل.س"
  },
  {
    "lowerCaseName": "szl",
    "upperCaseName": "SZL",
    "symbol": "L"
  },
  {
    "lowerCaseName": "thb",
    "upperCaseName": "THB",
    "symbol": "฿"
  },
  {
    "lowerCaseName": "tjs",
    "upperCaseName": "TJS",
    "symbol": "SM"
  },
  {
    "lowerCaseName": "tmt",
    "upperCaseName": "TMT",
    "symbol": "m"
  },
  {
    "lowerCaseName": "tnd",
    "upperCaseName": "TND",
    "symbol": "د.ت"
  },
  {
    "lowerCaseName": "top",
    "upperCaseName": "TOP",
    "symbol": "T$"
  },
  {
    "lowerCaseName": "try",
    "upperCaseName": "TRY",
    "symbol": "₤"
  },
  {
    "lowerCaseName": "ttd",
    "upperCaseName": "TTD",
    "symbol": "$"
  },
  {
    "lowerCaseName": "tzs",
    "upperCaseName": "TZS",
    "symbol": "Sh"
  },
  {
    "lowerCaseName": "uah",
    "upperCaseName": "UAH",
    "symbol": "₴"
  },
  {
    "lowerCaseName": "ugx",
    "upperCaseName": "UGX",
    "symbol": "Sh"
  },
  {
    "lowerCaseName": "usd",
    "upperCaseName": "USD",
    "symbol": "$"
  },
  {
    "lowerCaseName": "uyu",
    "upperCaseName": "UYU",
    "symbol": "$"
  },
  {
    "lowerCaseName": "uzs",
    "upperCaseName": "UZS",
    "symbol": "сум"
  },
  {
    "lowerCaseName": "ves",
    "upperCaseName": "VES",
    "symbol": "Bs."
  },
  {
    "lowerCaseName": "vnd",
    "upperCaseName": "VND",
    "symbol": "₫"
  },
  {
    "lowerCaseName": "vuv",
    "upperCaseName": "VUV",
    "symbol": "Vt"
  },
  {
    "lowerCaseName": "wst",
    "upperCaseName": "WST",
    "symbol": "T"
  },
  {
    "lowerCaseName": "xaf",
    "upperCaseName": "XAF",
    "symbol": "₣"
  },
  {
    "lowerCaseName": "xcd",
    "upperCaseName": "XCD",
    "symbol": "$"
  },
  {
    "lowerCaseName": "xof",
    "upperCaseName": "XOF",
    "symbol": "Xof"
  },
  {
    "lowerCaseName": "xpf",
    "upperCaseName": "XPF",
    "symbol": "₣"
  },
  {
    "lowerCaseName": "yer",
    "upperCaseName": "YER",
    "symbol": "﷼"
  },
  {
    "lowerCaseName": "zar",
    "upperCaseName": "ZAR",
    "symbol": "R"
  },
  {
    "lowerCaseName": "zmw",
    "upperCaseName": "ZMW",
    "symbol": "ZK"
  },
  {
    "lowerCaseName": "zwl",
    "upperCaseName": "ZWL",
    "symbol": "$"
  }
]